{
  "3 zmianie" : {
    "link" : "jhlKMc0ezpk",
    "lyrics" : "Prawdopodobnie widziano Cię dziś Najprawdopodobniej byłaś wtedy z kimś A ja na trzeciej zmianie Robiłem pranie...   Gdy usłyszałem to Rzuciłem te szmaty Nie było autobusu więc gnałem w stronę chaty Pomyślałem, że gdy Cię zobaczę z tym fagasem Będą chwilę to w ostatnie Wasze - wyjmę tasak!  Prawdopodobnie widziano Cię dziś Najprawdopodobniej byłaś wtedy z kimś A ja na trzeciej zmianie Robiłem pranie...   Gdy usłyszałem to Rzuciłem te szmaty Nie było autobusu więc gnałem w stronę chaty Pomyślałem, że gdy Cię zobaczę z tym fagasem Będą chwilę to w ostatnie Wasze - wyjmę tasak!   Nie poszedłem dalej, wróciłem się na CPN Nalałem benzyny Do karnistra dziesiątki Zrobie to co muszę Bo się uduszę I pieśń tą zanucę skąd nigdy już nie wrócę, skąd nigdy już nie wrócę......   Prawdopodobnie widziano Cię dziś Najprawdopodobniej byłaś wtedy z kimś A ja na trzeciej zmianie Robiłem pranie...   Gdy usłyszałem to Rzuciłem te szmaty Nie było autobusu więc gnałem w stronę chaty Pomyślałem, że gdy Cię zobaczę z tym fagasem Będą chwilę to w ostatnie Wasze - wyjmę tasak!   Prawdopodobnie widziano Cię dziś Najprawdopodobniej byłaś wtedy z kimś A ja na trzeciej zmianie Robiłem pranie... Jest tak gorąco i zajebiście Nareszcie jest zajebiście nareszcie jest zajebiście! (zajebiście!)  Jest tak gorąco i zajebiście Nareszcie jest zajebiście nareszcie jest zajebiście! (zajebiście!)  "
  },
  "5ke" : {
    "link" : "LeMiHWw144w",
    "lyrics" : "Na pamiątkę Ja przybijam Ci piątkę Przecież dobrze mnie znasz Co Ci mówi ta twarz? Ten stary diament to mój sakrament Otworzył bramę abym był swoim panem    To nowy dzień, to nowy dzień, Ty popatrz tam, a popatrz tam Jak widzisz Ty nie jesteś tu sam Też inni sami są Z gołymi rękami Tu chcą ograbić i zabić, zakopać i pograbić Nie możesz bracie drapać swych ran Tylko najsłabsi robią sobie OVER-GAME Odłóż klame Bo zrobisz plamę, jak ruszysz palcem I skończysz z kulką w bańce (z kulką w bańce!)   Na pamiątkę Ja przybijam Ci piątkę Przecież dobrze mnie znasz Co Ci mówi ta twarz? Ten stary diament to mój sakrament Otworzył bramę abym był swoim panem  Na pamiątkę Ja przybijam Ci piątkę Przecież dobrze mnie znasz Co Ci mówi ta twarz? Ten stary diament to mój sakrament Otworzył bramę abym był swoim panem "
  },
  "A jak chcesz" : {
    "link" : "VTLYom-Zjeo",
    "lyrics" : "Szanuj swoją wolność, swoje zdrowie, swoich braci, chleb i wodę A jak chcesz, a jak chcesz , a jak chcesz A jak chcesz wszystko, daj z siebie wszystko Ja trzymam kciuki, jestem tu blisko Nie daj się uśmiać tym fałszywym dziwkom Dorzucaj ognia, się jara ognisko To jestem ja, a to jest mój brat Naście tych lat, drogi już szmat Nie chcę by dzielił nas świat ten za krat Żyjmy wariaty i nie liczmy strat Byliśmy pod, lecz jesteśmy nad Mam wobec tego kilka dobrych rad A tysiąc wat to LSO, wiem kto jest kto, a ty to wiesz? A kiedy mówisz mi znowu to samo Kiedy mówisz mi, kiedy mówisz mi A kiedy mówisz mi znowu to samo Kiedy mówisz mi, kiedy mówisz mi A kiedy mówisz mi znowu to samo Kiedy mówisz mi, kiedy mówisz mi Osiem lat stażu kończę w garażu Nic nie zasłania mi teraz obrazu Więcej przekazu, chcesz więcej, chcesz sedna Kwestia niezmienna, od lat jest tu jedna W samplach i bebnach, witam sie zegnam Napinam sciegna, jezyk za zeba Nie dotykamy pamietamy scierwa Pufam amsterdam, tak brat cała banda Długa jest sztanga, gra świeczki warta świat w innych barwach, prawda na wargach Miękkie jest serce, to dupa jest twarda Wolność masz w gwiazdach świetlnych lat miliardach Nie mów mi, nie truj mi Zostaw mnie w spokoju, potrzebuje teraz dobrego nastroju Nie zmieniam celu mego, nie pytaj dlaczego Uparty taki jestem, bo widzę tam niebo A kiedy mówisz mi znowu to samo Kiedy mówisz mi, kiedy mówisz mi"
  },
  "A wróg jak stał" : {
    "link" : "rzOj4f4YQIQ",
    "lyrics" : "wiesz ze jeszcze nie jest za późno abyś dopiął swego  wszyscy trzeci teraz chuj mają do tego  bądź ode złego nie oczekuj bóg wie czego i wiedz ze  nie zdobi ludzi ciuch od Armaniego poszedł gdzieś donos  na ludzi nie ostrożnych co zdrajcy bezbożni pokazują oblicze  kicze zamieniają się w srogie bicze jak i wyroku nie licze bo oskarżeń nie słysze a wróg jak stał tak stoi jak skała, zrozumiałem w końcu ze  niech se stoi jak ta pała  omijam dramat zostawiając tam granat  piosenką która będzie zawsze grała  ty wiesz ze jeśli mówie coś to tylko w twoje oczy  ty wiesz ze jeśli trzeba niech poczeka to tej nocy  ty wiesz jeśli byłbym tak naprawdę skurwysynem  to nie dał bym dowodu na prawdę tym czynem nie wszyscy przecież są tacy pojebani, to ze jedna rani  nie bierz se do bani  tylko juz nie patrz na nic i dzieciak w przód tam czeka nowy swiat brat a z nim piękna pani a teraz zgadnij to czego przecież nie da się dokładnie gdy byłeś na dnie wiedziałeś nikt cie nie okradnie  pieniądze to nie wszystko.. podejdź blisko stąd widać wysokości które są tak nisko a wywołam burze, w tej pięknej ciszy  jak zaraz zagrzmię to ty na zawsze zamilczysz  słuchajcie rury nad wami czarne chmury, nie liczą sie teraz odpicowane fury, to nie kalambury to jest przekaz do kurew które  po trupach idą wciąż gdzieś tam w górę   a wróg jak stał tak stoi jak skała, zrozumiałem w końcu ze  niech se stoi jak ta pała  omijam dramat zostawiając tam granat  piosenką która będzie zawsze grała a wróg jak stał tak stoi jak skała, zrozumiałem w kołcu ze  niech se stoi jak ta pała  omijam dramat zostawiając tam granat  piosenką która będzie zawsze grała a wróg jak stał, a wróg jak stał, a wróg jak stał, tak stoi jak skała   pytam sie ciebie o co się znów pytasz rozejrzyj się sam wokół  nie wierzę że nie chwytasz kto jest tym w porządku kto w porządku ,kto bandyta  nie zrobi ci pod górę a kto podpowie ci dzisiaj  gdzie są dobre ścieżki gdzie nie trzeba z twarzy czytać jak sekundy  która cyka bpm-ach moich bitach  czas leci ja pozdrawiam mego przyjaciela gita za kratami jest nie jeden  z nich ja czuje jak oddycha"
  },
  "Adapter" : {
    "link" : "6GtR2gpq2I0",
    "lyrics" : "(Chowaj towar gęsto, wiem, że jarasz towar często Chowaj towar gęsto, wiem, że jarasz towar często Chowaj towar gęsto, wiem, że jarasz towar często A te kurwa śmiecie myślą, że mundur to męskość)  Dzisiaj jest we mnie magia, dzisiaj garnę rozgardiasz A Ty co Ty opowiadasz, że chleba nie jadasz? Słuchaj teraz ziomuś, wali w Ciebie charakter Mistyk, dźwięki, wokal, a nie scena i adapter Nie rap ten, jestem teraz w tym miejscu Nie rap ten, miłość i nienawiść mam w sercu Nie raptem, prosto w czachę wchodzi Ci rap ten Dziś 24 grudzień, już za tydzień nowy chapter Powiedz mi co zrobić, bo nim powiesz co ja zrobię Lirykę mam w sobie, jej potęgę chciałbym w głowie Chciałbym to mieć, inni chcieli by chcieć Więc: rapuj, rapuj Michał! Rapuj, rapuj Michał! I nie jestem taki, że chcę aby mój wróg zdychał Bo mam dobrą krew, prosto od Matki Dziękuję Ci, chociaż Twój widok jest mi rzadki Lecz zostanie tak jak jest bo ominę wszelkie wypadki Gdzie godziny policyjne są wszędzie gdzie nie wyjdę Chowaj towar gęsto, wiem, że jarasz towar często A te kurwa śmiecie myślą, że mundur to męskość A gejostwo i policjant wszak ma swe podobieństwo Nie sądzisz? Jeśli nie, się sam przekonasz, zbłądzisz Dzisiaj mam dobry plon, dziś mnie koi mój dom Choć mój dom mnie zawsze koi, nie jestem tu w zbroi A jak wyjdę to się roi od kurestwa w paranoi Nie wychodzę, siedzę, piszę listy, na mej drodze Powodzeń, niepowodzeń, pierdolę powodzie Bo mam tu drugie piętro, mam do bitu tętno I ustawie sobie kurwa teraz jakie chcę tempo Późne tempo, późne tempo... Pamiętasz te loty i koty za płoty? Pamiętasz, jesteś tu, przed nikim nie klękasz I pięknie. A pedałom faja mięknie Mięknie wszystko jak jestem Boga blisko Ognisko jest tu bracie, kolektyw to klucz W życiu naszym, gdzie zależność od systemu, maszyn Chce mnie kurwa straszyć? W czterech ścianach mam się zaszyć? Wiem, jest najlepiej gdy jebaną biedę klepię Wtedy ty kurwo z rządu jeździsz se Cayenem Ale wiedz, że Bóg ma dobry widok pod niebem I nie mija się z gniewem, i co dalej? Nie wiem! Nie wiem, nie wiem, nie wiem, nie wiem, ale jedno wiem Jedno wiem - w życiu OCB i jak to wykorzystać Błędów było wiele, sam muszę to przyznać I przystać muszę, bo w bletę towar kruszę. "
  },
  "Bales" : {
    "link" : "Z-is8gPZStQ",
    "lyrics" : "Dobrze brzmienie szczerość w tym co robie cenie  ty kurwa choc bys chcial ja na pewno sie nie zmienie  będe taki sam bo ja to nie ty, jebie takich jak ty jebie psy fałyszywe kurwy  wycieli was na tą liryke nadszedł czas jeszcze raz tam gdzie siano jestes ty byle tylko blisko każdą mine do tej gry ty bardzo dobrze znasz inna wyraz inna twarz dobra mina do złej gry ja jestem sobą a kim jesteś kurwa ty wiesz jakie chodzą sluchy ? chciałbys wiedziec czy mam buchy moze mam moze nie tylko dla wtajemniczonych nie dla ciebie kurwa psie zastrzeżone informacje orient na # przyznasz nam racje nie należysz do nas więc wiedziec nie musisz nie ufam ci kurwo więc na chuj sie dusisz  powiedz powiedz po co ci to chcesz scisnac na korone numer dwa to incognito ty pseudo bandyto czyims kosztem jestes tu lecz na kazdego przyjdzie czas Liryka składu Ostródzkiego jeszcze jeden raz ze ścierwem do piachu tak powinno byc brachu każdą kurwe kara spotka zemsta po latach musi byc bardzo słodka dla kazdego z czasem przyjdzie  czas zapłaty dla kazdego z czasem rozumiecie konfidenckie szmaty? rozumiecie konfidenckie szmaty?"
  },
  "Bałagan" : {
    "link" : "sgVndX67YdU",
    "lyrics" : "Ej ziomuś do serca weź se rap który wkręcam Teraz na obroty myśląc o tym i o tym Koty za płoty poszły, miały loty Biały trotyl, już wiesz co było po tym? Ej ziomuś do serca weź se rap który wkręcam Rap wciąż ten sam, teraz czas w pokoju spędzam I myślę o tym jak jeszcze bardziej kurestwo dobić Myślę, nie omijam przed zaśnięciem ciśnień A jak zasnę, to niech piękną niewiastę se przyśnię Niech zakręcę światem, gdzieś polecę z mym bratem Bo jak wstanę będzie co najwyżej do sklepu po kratę Lecha, przecież już koniec miecha Łap tą marną wypłe, nie narzekaj na trucie Czekaj patrz na zegar, czy nie garbieje Ci plegar? Czas spierdala, czy my, ty, ja mu pozwalam? Czy czasem nie spadam i sam do siebie nie gadam? Ej halo stragan, w moich myślach jest bałagan Ktoś mi po trasie zachował się jak pała Ałała, okoliczność prawdę ukazała A muzyka odmieńca, grać nie przestała Nie przestawaj słyszysz mnie ty mała kurwo Dalej jadę z tobą równo, autostradą główną Wołaj S.O.S, bo za rogiem jest pies Wołaj \"Pomóż mi!\", bo ja liczę twe dni Wołaj i do dziury się chowaj Albo mam lepszy plan, skocz mi po browar Albo mam lepszy plan, weź skocz mi na wałek Albo jeszcze lepiej niech skoczy twoja siostra nawet Pokażę jej jakie może być to ciekawe Fajnie w zabawie, a tu sprawy gonią Wprost we mnie prostego, a nie napady z bronią W ręku, bez lęku, bez świadków i dźwięków "
  },
  "Bez wyłamki" : {
    "link" : "IXqouiFTK4I",
    "lyrics" : "niech nowy dzień przyniesie nowy plan niech nowy plan będzie lepszy mi i wam nad nami jest pan, nie bądź zbyt lekkomyślny zrób tak abyśmy z Ciebie dumni bylibyśmy a jak bylibyśmy to wiedz byłby kozak teraz brzmienie jak prozak, dla moich uszu świeci życie, dzien w dzien używam tuszu idę z tym dalej w najach a nie w kapeluszu na drodze mym wodzem stabilność lojalność w sumie tylko dzięki sobie dalem rade to ogarnąć jak był na to czas wtedy był pusty las nauka byla tu więc zacząłem ją grać więc gralem gralem w ogóle tego nie sprawdzałem a teraz jest ta chwila, mowie ci sprawdz mnie sprawdz mnie, chyba się tym zatniesz może w dobry trans wpadniesz proste wiersze me odgadniesz w których chwile z sagi trego maja CMAZ i akcje których nie poznasz z teorii gazet, z gazet które czytasz za każdym razem, przed wyjściem do pracy gdy w spokoju spijasz kawę i nie czujesz zagrożenia i obawy nawet Twój świat to dobry prąd, czasem w kinie james bond, rodzina kilku przyjaciół wolny czas własne kąty, cieszysz się kurwa, że jesteś stąd nie dotyka Cię hardkor jak i policyjny patrol nie widzisz kurestwa bo sie rozgladasz rzadko nie posiadasz materialnych problemów no bo na szczęście w Twej familii nigdy nie wywiało PLNów i nie usłyszysz nigdy  tego głosu do ciebie bo u was jest tak że się słucha tego co ma przebieg, wiem nieważne, ja tak tylko jadę dla siebie to do mikrofonu, by tej małej historyjki se posłuchał mój ziomuś w spokoju w domu, lub też  bezsennie w trasie gra sie ma sie rytmy na wypasie trzymam centy w pasie indziej wszędzie idzie obwód, żyje w zgodzie z sobą i pielęgnuje swój ogród, dziewczyna moja ziomki, tdw bez wyłamki, bez załamki  i już przechylone szklanki tradycyjnie każda nauka do bańki tradycyjnie teraz  ósmy rok samare wyjmę ósmy rok, a z nim następny krok to jest 06 jesień a co zima przyniesie? na sto procent nie ominą tego me produkcje gdzie momentów dedukcje, jak i samego życia a moje życie jest dla mnie takie ważne, wszystko na co patrzę muszę widzieć wyraźnie, ty pomóż mi i rozświetlaj prawdę ty pomóż mi, a ja pomogę Ci też nie patrz na kesz, patrz na Ostródzki deszcz to chwila aby siły nabrał każdy leszcz leszczu niech Bóg da ci pary w tym deszczu dał ci życie więc i potencjał w sercu jak me myśli po męsku i pociąg do pupensow tak słów do bitów i usta do wersów"
  },
  "Cmaz na wizji" : {
    "link" : "4SQWfu8fIAQ",
    "lyrics" : " Cmaz na wizji, chuj w dupe hipokryzji A teraz chillout a więc jestem busy Mamy w chuj mocy, mamy w chuj mocy A kto pierdoli ploty, chuj w te cioty   Chuj w te cioty, małolatki robią ze mną foty Jestem tu z Tobą, mała starczy jeden dotyk Trudna młodzież słucha tego, bo nie miała lekko Pozdrawiam świrów i hardkoru sektor Ma wiedzieć, wie kto Te świry całe życie musiały radzić na ulicy Jedni skończyli na wyżynach inni w kostnicy Fanty w piwnicy, przetrwają najsprytniejsi Tu zawodnicy, każdy milczy, apetyt mam wilczy Za nie fart, chuj w dupe z fartem Zawsze jemu wdzięczny A bagaż czasu brat, nigdy nie poręczny Jebać tani szajs, uczucia w paczkach To tylko hajs, więc o czym gadka Proszę Cie ciesz się, doceń wreszcie Obudź w sobie dreszcze, obudź w sobie dreszcze   Przekaz pomógł, jesteś w domu Ja to wiem A nie mów to nikomu, ale jesteś tu w domu Syberia-oficjalnie, takie rzeczy mówi się bardzo starannie To nasz jedyny, to nasz jedyny Dom, dom ziomuś   Rozmyj się ze mną,wiem że to lubisz To uczucie kiedy ciałem stoisz, a umysłem gubisz Widzę że marzeniami przepełnione oczy Czuje je, czuje gdy tak głęboko patrzysz w moje   Przebiegłem cały ten szlak, a jak Wyobraźni już wiem to, brat Kto jest ważny, kto nie ważny Kto mnie drażni, kto niepoważny Gdzie kurwy rodzą się z okazji Jak chcesz to mordo nazwij Jak chcesz to mordo nazwij  Pytasz się czy warto (warto) Byłaś jedną na sto (na sto) Oglądało się za Tobą całe miasto (miasto) Nigdy nie chciałem z Tobą grać w to Warto (warto) Byłaś jedną na sto (na sto) Oglądało się za Tobą całe miasto (miasto) Nigdy nie chciałem z Tobą grać w to [Gog] Przebiegłem cały ten szlak, a jak W wyobraźni już wiem to brat Jak chcesz to mordo nazwij Jak chcesz to mordo nazwij "
  },
  "Cnł" : {
    "link" : "2x7GoxnsdNg",
    "lyrics" : "teraz rapem param ciebie mieszkańcu tego miasta teraz mówię dobrym ludziom # trzymajcie garde w szyjach i trzymajcie dupe w ryzach nie chce być przesadny ale jebie im się pizda więc pamiętaj ziomku ufaj tylko sobie żeby nie było że patrzysz, albo wyjebal cie człowiek teraz patrz w swą dal i mówię nie zamykaj swoich powiek teraz słuchaj bo ja mówię, drugi raz tego nie powiem twoje życie jest przewrotne tylko nie mów że nie nie nie jestem jasnowidzem ale to jest takie proste masz do kokainy dostęp ziomek to nie żaden postęp na pewno w twoim zdrowiu, a że w wielkim świecie wpierdalaja to jak bułki, nie znaczy że nie ryjecie # to ze jest to bilet w jedną stronę # to ze  potrafił wprowadzić cie w omen widziałem ludzi na oddziałach psychiatrii ziomek powietrze ludziom mile powietrze daje siłę daje rap który płynie prosto od Boga i w rytm idzie noga głowa i też ręką nie wymieka wiesz o co chodzi kiedy cizia dobrze steka kiedy dobrze cie pamięta wtedy na twój chuj jest cięta jej buzia zamknięta tylko kiedy trza otwarta poszła dobra karta bajera jest wiele warta bajera moja jest tak naprawdę zazarta ale Tutaj wrabia cwele na farmazon łape zanim dziwka się zasapie musi ściągnąć majtki najpierw później ściągam bucha myślę jaka ona jest głupia w sumie czego się spodziewać to jest tylko prosta suka prosta suka która lubi do drzwi pukac puka puka puka czeka aż ktoś ją wystuka﻿"
  },
  "Co jest cięte" : {
    "link" : "3n8Zilki7AQ",
    "lyrics" : "13 grudnia, po ósmej minut parę czy jesteś? jestem pale boli cię to? wcale, bo ja normalny chłopak tu gdzie w opcji jest czteropak i Samara cała, daje radość choć jest taka mała z mocą, rano czy też nocą, nie ważna jest godzina wstajesz żule piją wina bo już otworzyli sklep szara codzienność jak na śniadanie chleb płynie z procentami ja odurzam się jointami i dłużej w to nie wnikam zawijam się i znikam myślę idę se do ziomka odwiedzę mamę Tomka no i innych braci oczywiście też z ulicy już z samego rana historia się układa historia będzie grana poleci w miasto z bitem no bo kurwa hit jest hitem poleci na tym bicie, bo to nie jest tani bajer tylko kurwa życie jeden zwykły dzień myślisz ale ze mnie leń, bo nie szukam pracy szukam ale nie mam, choć mam zawsze jakieś grosze Chcesz masz proszę prosze to co mam w swej głowie tysiąc myśli, tysiąc słów zdziwiony słyszysz znów, w to co wkładam serce czas i poświęcenie i ludzi których cenię 3 litery tdw  bo są wtajemniczeni, pare zeta też w kieszeni bo co ma kurwa nie być, są bo są obroty i na starcie pierdolnięcie, nie odwijam się na pięcie nie udaje że nie widzę gdy ziomek jest w potrzebie i tu podaje dłoń, chroń nas Boże chroń i tak cały czas, siła nie jest we mnie, ale bracia w nas, w tym siedzi moc, moc w porozumieniu, liryka w blasku słońca, a nie jakieś chmury w cieniu, bo dla siebie z rapem jedzie w duchowym dostatku, choć materialnej biedzie  pierdole cie  pierdole pierdole pierdole   pierdole to, co kto mówi na mój temat pierdole to co mówi on na każdy inny temat sam mam tu swe tematy, klimaty  czasem w problemach, jestem wiec na chuj myśleć o innych jeszcze. sam powiedz mi człowieku jeśli jesteś przytomny, zobaczysz co jest chore, kto tak naprawde ułomny, kto jest mądry, dobry szczodry a nie czuje się jak lordy co jest kurwa grane jaki plan nie lichym planem  że nie hajsy siano baksy, a Bóg jest twoim panem, co jest kurwa cięte? dłonie spod prawa wyjęte, więc zamknij kurwa pysk bo będe miał resztę, znów przy majku ze skrętem do policji z pentem, bo wiem o co chodzi, w praniu charakter wychodzi, mój hnr ljn, a tam kurestwo trzodzi, co jest do wycięcia baleś wiem że ty się z tym zgodzisz i na ruchy mych pomysłów teraz znowu lecą buchy i nie jestem czlowiek gluchy, jestem rapem trego maja, ktory daje mi oblicze, ktory jest ten byt sie zdaje, ty pytania se zadajesz, a ja zakładam naje i wypadam z mych pomieszczeń, chociaż podwórko dziś jest z deszczem, od ziemi do ojca wszechmogącego mam przestrzeń, wolną aż do słońca, wolną aż do końca mam nadzieje mała, weź mnie rozważ wsiądź na bolca, nie jestem w kolcach, a tym bardziej w dolcach  wiem ze jestes goraca, a ja wiem co mam w portkach wiem co mam, wiem co chcę, wiem co jem, to jest joint, a to tlen a co wali ci po uszach to nie pierdolony sen choć koszmary czary mary bywają tu czasem stary, lecz ja dość mam pary, biore to na swoje bary i pierdole po raz kolejny robię to co wole, siadam przy okrągłym stole, siada TDW ziomek i mówi witaj gogu, be u gie to mój przydomek, taki tam sobie, każdy wie wszystko po słowie co powie no to zrobie oby jak najpózniej w grobie co dzień wstrząs mam do kobiet dzisiaj setki bym ich obiegł i nie zamkną powiek, ja spompowałbym każdej, monday wensday, friday i saturday czy jakos idzie tak, a może na wspak. nerwy koje robię swoje dziki chłopak jestem bowiem obiecuję ci słuchaczu, jeszcze wiele ci opowiem, jeszcze wiele, dziewczę caluj mnie po ciele, zdejmuj kurwa majtki i kladz sie w me pościele"
  },
  "Co ma być to będzie" : {
    "link" : "evL10eR8CPM",
    "lyrics" : "Serwuję to brzmienie, gdzieś tam jest me marzenie, gdzieś tam w tych bębnach i samplach wiesz chłopaku, pozmieniało się co? od wtedy na trzepaku, od krasickiego, ja na wprost do tego maja, nie otwieram szampana a tak mało tych okazji o co jest z okazją dzieciaków w azjii? wiem że każdy mały moment, szczęścia przy sercu jest ważny, więc szanuję te chwile w których czuję przywilej, poznając se dupensa robię tak by było milej, a całej sile, wycisnę jutro ciężar, tak jak czuję że żyję tak jak czuje że tu jestem, a w miejscu gdzie jestem, życie jest testem. Do szczęścia, przejścia, do miejsca w bestiach(?) wiesz zrobisz jak chcesz, a robić co wiesz, więc grzejesz grzejesz, strzelaj i rozkazuj, albo leż z nią i pal, o złym nie myśl ani razu jeszcze raz rób co chcesz, jeszcze raz co chcesz bierz, bierz co chcesz, co chcesz rób, wszystko co tu mam, nie zawdzięczam sobie sam zawdzięczam tobie, moja matko, mój boże, zawdzięczam ci ziomku, zawdzięczam ci wrogu, a wracając do domu zaprzeczyłem determinacje a gdy zjadłem kolację, rosłem w siłę, piękne niebo sobie szyję, CMAZ cyka ryk(?) cyka zegar, zrobie plegar, mówi złap ten ciężar oczywiście przecież pięć(?) przecież nigdzie nie wyjeżdżam, w misji pokoju, nie mojego przecież czy śnie(?) dostałeś zimny prysznic a myślałeś że cud błyśnie, niee bierzesz teraz co chce ci dać, kurwa mać, ja w na SLW prawda TDW, WPADS i buchy na stres"
  },
  "Co noc" : {
    "link" : "fnDDFBC322s",
    "lyrics" : "Co noc Myślałem o Tobie co noc Co noc Myślałem o Tobie co noc  Pewnego dnia byłem w tej drewutni i siedziałem sam i byłem smutny Myślałem wciąż o Tobie bo, za Tobą tęsknie co noc  Co noc Myślałem o Tobie co noc Co noc Myślałem o Tobie co noc Co noc,co noc,co noc Choć nie łączy już nic nas  (Co co co, nienawidzę Cię)   LSO gra, LSO  LSO gra, LSO  LSO gra, LSO  LSO gra, LSO "
  },
  "Co u ciebie i rodziny" : {
    "link" : "NMZlDscqljM",
    "lyrics" : "jak zapytam sie ciebie, co u ciebie i rodziny, szczerze wierze, że mi powiesz że jak zawsze bez spiny, były siostry urodziny i u mej rodziny chrzciny, a tak wszystko po staremu, ziomuś jak dawno temu, aha no to super tu ta szopka jednym rzutem, zobaczysz to jak to, że w radiu wciąż ten sam skuter, inne te same przeboje na mych starych schodach stoje, patrze na sąsiadów, znaczy starej daty dziadów taką mam ulicę, tutaj zawsze spokój widzę, nawet jest spokój ducha...(?) a bloki się cieszą, że nigdzie indziej nie są i ty się cieszysz...(?) brani będą setki, tych przeżyć, tych rzeczy, słyszę dźwięk telefonu, nadal Kasia do mnie beczy słońce na horyzoncie, ciemno robi się wszędzie i nastaje tu noc, każdy zwija pod koc, ale dalej kurwa wiem, bo nie musze żyć w czerni, minęło lato 06 i przyszedł październik, wiesz o co b, dalej zero hajsu w kielni, i cooo? mam się teraz przestać bunąć, wolę rap tdw i setki spraw dobrze w nim ująć. Chłopaki to czują, serca kroki im dyktują a ja tutaj, na drugim piętrze, odkrywam na papier raz po raz swoje wnętrze by szlaki były prostsze, a nie dni moje krętsze, a Ty siostro powiedz czemu znów ocierasz łzy, czy ktoś dzisiaj umarł czy zachował się jak kurwa, czy ktoś powiedział Ci, że łatwe będzie życie tutaj? Teraz ja mówię Ci, niech Cię koi RT nuta, niech Cię koi zbroi, bo świat do góry nogami stoi, no i wiesz, niezbyt wiele zmienisz, gdy się boisz Ty nie bój się zawsze iść swoim rytmem, a jak już się wkręcisz, przeskoczysz lasy sprytnie i dobitnie wszystkim złym zakurwisz arytmię. Polecę sam, nie mów mi jak w to gram niczym słuchasz tą muzykę z TDW bram, niech to będzie ten trans dla ciebie dzieciaku, chłopaku, mężczyzno ale sens trucizną, ona jest prawdy strefą, to ten kraj chce mieć detox, bo kurwy w rządzie se wkręciły, że są eureką, nie chce ci wkręcać, więc mówię od serca, twoja jazda nie świeci jak gwiazda ponieważ dobija ją cieżka prawda, której nazwa jest na NBP papierach"
  },
  "Czy bedziesz tam" : {
    "link" : "S_-8_xSHSLY",
    "lyrics" : "Blisko Ciebie tak, chciałbym już być Blisko Ciebie tak, ja chciałbym już być Czy będziesz tam gdzie będę jaaa, gdzie będę ja, gdzie będę ja Czy to co kocham się jak zwykle skruszy, a potem znowu nic mnie nie ruszy A może diabeł mi wejdzie do duszy, a potem jaaa (A potem znowu nic mnie nie ruszy, a może diabeł mi wejdzie do duszy)  A może będę jak, wolny jak ptak  (Znowu nic mnie nie ruszy a może diabeł mi wejdzie do duszy a może będę jak, wolny jak ptak bo dostałem już od ciebie znak)   (Nie czuje nic do ciebie już, a taki miałem na gardle nóż, cyganko wróż, ty ze mną stróż, czy to co kocham się jak zwykle skruszy)   Blisko Ciebie tak chciałbym już być Blisko Ciebie tak, ja chciałbym już być I czy będziesz tam gdzie będę jaaa, gdzie będę ja, gdzie będę ja"
  },
  "Diament stary" : {
    "link" : "2fZrlHf46Ds",
    "lyrics" : " No bo na tym swiecie pamietam cie najbardziej tak bardzo wiesz kim jestem i o jakiej w tej grze karcie zostawie za sobą wszystko co zwiazane z tobą mozesz znac wszystkie szyfry i tak scialem do nich ogon tak jak bylem przeciw wrogom wiesz kto mowil o mnie wrogo a ta kurwa tak bezczelna abym w trumne stanal nogą mogla tylko sobie posnic mej facjaty pozazdroscic ej jestesmy juz dorosli a rzucone dawno kosci  wytlumacze ci najprosciej czasem trzeba spalic mosty nie wiedzialem kiedys tego dzis buduje swe swietosci wielkie mury i filary chwile szczescia i koszmary moje dary co od ludzi dostalem co skorzystalem moj diament tak sprawdzony jak stary jest tutaj w hacie i czasem mysle jak jest wazne to co mamy w zyciu bracie  To ostatnie slowa które sa dla ciebie nastepny raz zobaczymy się już chyba w niebie  zakorzeniam sie w to tak i teraz jak poprzednio rap wu ojciec sedno w tym przypadku bezposrednio pytam się i chce wiedziec ile jeszcze jadac z rezerwa i jak wiele kurestwa nie da mym zywilowym nerwom  nie ma wiara na tych ktorzy nawet na swoja przysiegna odgrodzony czarna wstega miedzy dusza a swym cialem sam bywales ja bywalem teraz chcesz zapytaj zgraje te odnotuj na tym swiecie nie jestes pablo escobarem  aby chleb byl. nie? to i zeby beda moje zycie moje zloto ma mowa zaledwie srebro pytam i chce wiedziec ile jeszcze jadac z rezerwa wiem nie baczac na ulice nie ustapie pierwszym rzedom.  rap nawijam przeciw trendom ziomek tylko na to beknie zeby bylo smiesznie gramy przeciw frajerskim patrzałkom wiem ze przejebane bywa jak sie krew niebardzo krzepnie na te wiele zdarzen odpalone ta sama zapalka. "
  },
  "Diss na olszewskich" : {
    "link" : "4pshpfLTnY8",
    "lyrics" : "Ten kawałek teraz pięknie poleci na dzielnicy by wszyscy wiedzieli że Olszewscy to pizdy.. ej garbata cioto możesz mi wziąść do mordy a fifa rafe pizdo możesz trzepać tam na polu twój brat frajer z puchy ma kropke za uchem ej Sebastianie czy walili cie tam w dupe ? frajer z puszki a cwel na wolności jak garbaty braciszek co ma w dół dla większości Olszewskie wytryski z piekną dedykacją jade ten kawałek dla was z lekką gracją Olszak powiedz czy zrobisz coś dla pana ? padnij na kolana niech cie oszczam po browarach ty i twój brat jesteście na mnie uważaj garbusie bo braciszek cie okradnie a inwalido jebany pamiętaj kto jest kto, ja jestem człowiek a ty jesteś szczoch że co coś naśmiewasz chyba prosto do klopa liczy się to tyle co za uchem brata kropa weź swojego kolege co sprzedał na policji Domaskiś dobrze mówie nazwisko tej pizdy ? prawiczku pierdolony pozdrawiam cię również twój ryj wygląda tak jakbyś urodził się w gównie  to jest piękna piosenka o dwóch braciach petach jeden z kropką za uchem drugi chłopak konfidenta  garbata kurwo teraz głosem zapamiętaj nie strasze tylko radzę uważajcie na zakrętach   to jest piękna piosenka o dwóch braciach petach jeden z kropką za uchem drugi chłopak konfidenta  garbata kurwo teraz głosem zapamiętaj nie strasze tylko radzę uważajcie na zakrętach   to jest piękna piosenka o dwóch braciach petach jeden z kropką za uchem drugi chłopak konfidenta  garbata kurwo teraz głosem zapamiętaj nie strasze tylko radzę uważajcie na zakrętach"
  },
  "Do tych" : {
    "link" : "dPd7xYanx-c",
    "lyrics" : "Wiesz gdzie skończe? W psychiatryku, bo zbyt pojebany jestem by ciągle tak żyć tu. Prosze niech nic tu nic nie pierdoli, bo to człowiek Tip-tronic, a nie człowiek melanholik Teraz do tych...co sypali w oczy soli Przetarłem już łzy, kurwy nic mnie nie boli, Jade dalej ejjj, puszczam lso fale I nie jestem na ekranie jestem kurwa realem Mie przychodze tu z żalem Niose dume na klacie w imieniu takich jak my TDW bracie No i wreszcie.. byka za rogi weźcie, a ty sceptyku jeszcze raz jebał pies cie CMAZ nagrał rap, nagra jeszcze jeszcze Kto by tam się przejmował co mówia jakieś leszcze Bo ja jestem, TDW szamanem od zawsze na zawsze straszy z shotgunem FATUM? Jakie kurwa fatum, teraz ja rozjebie karty daje jemu ultimatum Bądz twardy wariat łapy swoje katuj, A później odpoczywaj swoich chwili wypatruj Moge iść w przód! moge iśc bez obaw Tylko Boże mnie prowadz żębym nie sfiksował W sercu wciąż ważne słowa ale pęka mi glowa,bo nie jest już zdrowa perspektywa różowa Gorące jest słonce lecz daleko za chmura Tu na dole padł deszcz zimny klimat sie przesuwa Już opuszczasz mnie? I nerw mnie puszcza W jeden moment z grodu róż czerwonych pojawia się puszcza. Sine bardzo usta zwiastują co zwiastują, nałogi niczym grzmoty całe ciało prądem kłują Z telewizorów energia złych źródeł to potęga, wirtualny szatan w młodych ludziach się wylęga Na chodniku worku proszkiem stajesz się małym bożkiem chwilę słodkie będą mu oddane zamieniając w gorzkie.﻿ "
  },
  "Drzazga" : {
    "link" : "Rfvp1wNzupg",
    "lyrics" : "Nie minęła chwila i wyszłaś stąd, nie wiedząc sama gdzie leży błąd, Uczucia poszły już w kąt, Raz dwa nie świeci już gwiazda, utkwiła mi drzazga, a w sercu miazga, Nie wiem jak to nazwać To wszystko byłoby tak proste, gdyby nie parę tych jebanych drobnostek, Do wyobraźni dostęp masz czy stąpacie, czy świadomości nie brak tobie dziś bracie, Pomyśl o czymś więcej niż tylko o sobie, pomyśl o tym tak jakbyś leżał już w grobie, Człowiek ale nie zamykaj powiek, był fart na chwile tu lecz znowu gdzieś pobiegł, to puść lolka w obieg i tańcz złej dobie, Raz dwa nie świeci już gwiazda, utkwiła mi drzazga, a w sercu miazga, Nie wiem jak to nazwać  "
  },
  "FREE DY" : {
    "link " : "1Td93PQx_qg",
    "lyrics" : "Nie mówię ci nara, nie mówie ci wara, nie mówie ci tego, a ty spierdalasz sama, jak chcesz, jak wolisz, jak możesz to poliż, a chuj ostatni raz jak ma przeminąć czas, więc pierdole to, pójdę dalej, gdzieś w dom, a co będzie mym domem, tego sam się tam dowiem, nie powiem, że bity, to co nie było lipa, na Freediego bitach i w powietrzu czuje życie, i chuj w to, puść to w niepamięć głupia kurwo, a ja jestem dalej sobą, będe zawsze, czuć to, a ty nuć to tak jak robiłaś mi w łóżku, hahaha. Jade jade jade szmato jestem w dobrej formie, nie zobaczysz mnie juz w formie, nie zobaczysz mej juz złości, chciałaś zagrać w kości, teraz nie mam litości, tych mdłości, mądrości, frajerskich różności. O co kurwa be, w imię zasad życie ważne, życie każde twe powątpi, lecz pierdole zdzierać język, niech kurwa co kanarkiem niech nie zdechnie jak se sądzi, błądzi, a nam życie na komisariat w sprawie pójdzie podrążyć, sama z sobą pierdolona kurwa musi zwyciężyć, informacje spieniężyć, zajebałeś z ucha, a więc możesz się odprężyć..."
  },
  "Fitness" : {
    "link" : "X2SKmBNnZAA",
    "lyrics" : "Idę, w miejsca nieprzystępne, w miejsca, których nienawidzę. W innym miejscu byłbym jakbym wiedział jak się dupę ludziom liże, cały życie pod prąd, całe życie mi mówili świrze. Ona dalej sobie wkręca, że jak idzie z nim to będą robić fitness.  Będzie robić fitness, a mąż będzie siedział w domu. Nie opowiesz ty nikomu jak się ćwiczy po kryjomu, jesteś kurwą, tak i się kurwisz dzisiaj ze mną, jesteś odważniejsza wtedy gdy już zrobiło się ciemno. Wielkie damy nietykane co o świecie zapomniały, kiedy robiły mi pałę, wtedy były takie małe. Tylko fitness, ja wiem kiedy jest ci bardzo łatwo, jak wsiadasz na kutasa gdy nie słyszą i nie patrzą, a więc pytam jeszcze raz komu rżniesz taka damę, on cię jebał będzie jebał, tak jak ja ciebie jebałem. Sama chcesz cię przysłał szatan bo jesteś zwykła szmata, więcej nie chce mi się gadać, tylko po tobie zamiatam, teraz patrzysz na mnie krzywo chociaż krzywa jesteś sama ale będziesz znowu nowa w domu kolejnego rana.  Dalej idę, w miejsca nieprzystępne, w miejsca, których nienawidzę. W innym miejscu byłbym jakbym wiedział jak się dupę ludziom liże, cały życie pod prąd, całe życie mi mówili świrze. Ona dalej sobie wkręca, że jak idzie z nim to będą robić fitness. "
  },
  "Flex" : {
    "link" : "HafGA8b_kmc",
    "lyrics" : "Idę w stronę tą samą Prosto w oczy mam wiatr Łzy czasem są karą Duma wielka jak głaz Znowu mówisz to samo A ja nie chcę tu grać Mówię do Ciebie halo Nosz kurwa mać﻿  Idę w stronę tą samą Prosto w oczy mam wiatr Łzy czasem są karą Duma wielka jak głaz Znowu mówisz to samo A ja nie chcę tu grać Mówię do Ciebie halo Nosz kurwa mać﻿  Wjeżdżam jak flex Dr.rex Co będzie next Chuj wbijam w tekst  Trenuje łapę Zamknij klapę Muzyki Maker Jaramy klakier  Wchodzę na pater Ho kires wahter Wale twój after Zdobywam czapter  Robię znów klatę Idę z tym taktem Zdejmij ta maskę Ojeb mi laskę  Reszta kondonów Robie wam miazgę Lekko i szybko Czujesz niepewność Gdy jesteś mnie blisko Twoja powaga Przy mojej to disco Wyruchał cie system I upadłeś nisko Fejmu igrzyska Wyglądasz jak dureń Wyglądasz jak pizda A już na pewno, nie jak mężczyzna  Idę w stronę tą samą Prosto w oczy mam wiatr Łzy czasem są karą Duma wielka jak głaz Znowu mówisz to samo A ja nie chcę tu grać Mówię do Ciebie halo Nosz kurwa mać﻿  Idę w stronę tą samą Prosto w oczy mam wiatr Łzy czasem są karą Duma wielka jak głaz Znowu mówisz to samo A ja nie chcę tu grać Mówię do Ciebie halo Nosz kurwa mać﻿ "
  },
  "Gog 2012" : {
    "link" : "sYwzKWnECH",
    "lyrics" : "Na raz, dwa, trzy i jestem obok,| na bank wiesz już, ze jestem sobą, dobrze wiesz, ze liczą się czyny, a nie słowo, podjąłem decyzję z głową wjeżdżając tutaj z tą mową, powiedz mi co czujesz teraz, gdy wiesz, że cię nie nabieram, to jest tak proste, że ciągle tobie umysł otwieram, motyle lecą do góry, już chcesz mnie trzymać za rękę, tak wciąż chce poznać me serce, bo ono gdzieś jest w piosence, robiłem krok ten, nie mój wróg, nie znam twej przeszłości, ale znam twój wzrok, widzę w tobie moc, znowu jest noc, ja będe tutaj dalej, gdy twój sen nakryje koc, napisze o tych ustach, chociaż rano jest szósta, niepotrzebny mi jest smutek, ani łez ta chustka, dobrze wiem, co mówię, mówię co wiem, że jesteś śliczna, do chwil niezapomnianych należeć będzie nieliczna, a strach to nasz wróg, więc przejdź świata próg,  jestem tu, nasze losy bada Bóg, mam tu czarodziejskie moce, koje twój słuch, prawda jest święta, więc ty widzisz mój ruch, a więc zaśnij, tego potrzeba w tej baśni,  ja obudzę cię na pewno gdy tylko zrobi się jaśniej, a ten mały ogień jeśli chcesz przecież nie zgaśnie, przecież nie zgaśnie, więc pokochaj go we śnie.  Powiedz mi co czujesz teraz, gdy wiesz, że cię nie nabieram, to jest tak proste... Powiedz mi co czujesz teraz, gdy wiesz, że cię nie nabieram, to jest tak proste, że ciągle tobie umysł otwieram, motyle lecą do góry, już chcesz mnie trzymać za rękę, tak wciąż chce poznać me serce, bo ono gdzieś jest w piosence, robiłem krok ten, nie mój wróg, nie znam twej przeszłości,  ale znam twój wzrok. Powiedz mi co czujesz teraz, gdy wiesz, że cię nie nabieram, to jest tak proste, że ciągle tobie umysł otwieram, motyle lecą do góry..."
  },
  "Herakles" : {
    "link" : "eTi2hjlDeXo",
    "lyrics" : "Święte słowo jest jak drzewo co głęboko ma korzenie, Złote milczenie to brzemię a zarazem pobłogosławienie, Ludzi z charakterem, którzy zgodnie z swym sumieniem, Są, tutaj jest mój dom, ofiaruję plon, Czy ktoś mąci, szponci, w życiu moim, w życiu twoim, Się poprawi, się zagoi, zabij gnoi, zrób co swoje, Ja robię ten projekt bo tam ludzie czekają, I mówię zawsze prawdę bo nie jestem żądną pałą Wieczór, rano, mam zajawkę – na rap i dymaczkę, Patrzę i widzę coś, co chciałem widzieć zawsze, Skąd jesteś mistrzu? Czy w sercu twym jest Chrystus? To ważne, poważne bo klimaty mam odważne, Jadę starym stylem, LSO gdy podoba ci się to, Słuchasz wolisz jointy, niż parać się tabletą, Lecę Betą piątką e34 znam men oldschool, Obroty na osiedlu więc wysprzęglam to na końcu, Mój rap jest po Polsku, więc kumasz, co jak jest, Co ma pary tyle ile pierdolony herakles!  Kto jest kim, to Recepta! Od TDW mam ten kastet, mam przekaz, Ile siły ma ten rap? Przekonałem się wiec nie zgaśnie ten pasmem, Ważne są dla mnie przeważnie, czyny z intencją pozytywną mam jazdę, Nie zgaśnie, ten potencjał w rękach, my mamy tą moc ty możesz tu tylko stękać, W bitach pirat – tak , ta chwila, gramy ten rap, to w nim znajduję chillout, Ja zabijam na 130, kładę na deski, w brukowcach nie ma mordy mej – jest na Syberii, Żebyście wy wiedzieli ile to dla nas znaczy, pilnuj ziomek ziomka byś sprawnie się nie rozkraczył, Nie musimy tu kozaczyć, wysoko jak concorde, choć na bitach się specjalizuję w zamykaniu mord, Ja na przekaz pozytywny Man zawsze mam ochotę, robiąc swoje R-ta nie stanę się ptakiem nielotem, raz dwa trzy, daję nową zwrotę, słowa przez które się kurwy oblewają potem, rap to mój totem – znów rap, rap to twierdza, niektórzy twierdzą, że rap bym oddał za marne złote, kolejną strofę dla zawistnych, pójdzie wam kurwy w pięty, gramy rap co się rozwija a nie Internet dancing… "
  },
  "Historia już" : {
    "link" : "uTU6agu43HI",
    "lyrics" : "Oprócz Ciebie Już Nic Nie Mam Więc Gdy Znikniesz, Ja Zostanę Tutaj Sam Przecież Wiesz, Ze Ja Nie Mogę Nie Pozwolę A Więc Wciąż Tu Gram Gram Gram Gram Pięknie Było Nam Wtedy, Gdy Był Spokój W Naszym Niebie Teraz To Tylko Kurz, Teraz To Tylko Historia Już  To Jest Męski Rap A Nie Gówno, Które Bardzo Dobrze Już Znasz Patrz Na Twarz Nie Wycofuję Się, Kurwo Nie Dziw Się, Ze Ciebie Nie Pogłaskam Widzę Cię Na Co dzień W Kilku Pierdolonych Maskach Falstart, Dom Z Kart Tablet Garstka To Nie Dla Mnie Najlepiej Spal Mnie, Jeśli Uważasz, Ze Masz O Mnie Rację Bo Dobrze Znasz Mnie, Bo Nie Znasz Jeśli Nie Zasnę A Z Nadzieję, Ze Może Właśnie Wtedy Jak Kiep Zgasnę Hardkor, Tak Ja Otwieram Te Wrota Wchodzę Na Kota Robię To I Tamto Po Nocach By CMAZ W Końcu Był W Dobrych Lotach A Nie Skończy Się Na Dobre Pizdy Zawsze Ochota Dziwko Zrozum, Nie Rośnie Mi Kurwa Siwa Broda   "
  },
  "Jeden krok blizej" : {
    "link" : "raoYXxqxOzs",
    "lyrics" : "Jeden krok bliżej. A jednak odstęp. Jeden krok dalej. Jestem już dalej. Wracam do siebie na śmieci stare. Nie musze mieć kolorów mogę mieć szarość. Wpatruję się w naturę i widzę swoją słabość. Odwracam wzrok za siebię i widzę kłamstwa upadłość. Jebanych frajerów bliskiej wibracji zazdrość. Przecieram ręcę, nie chce patrzeć na to więcej.  A tak naprawdę tęsknię za tobą, tak tęsknię za tobą A tak naprawdę tęsknię za tobą, tak tęsknię za tobą.  A tak naprawdę tęsknię za tobą, tak tęsknię za tobą  Miałem to wiedzieć więc wiem już. Boli gdy ranisz mnie suko. Nie wiem sam, za czym sam tęsknić mam. Miałem to wiedzieć więc wiem, jak boli gdy ranisz mnie suko. Gdy ranisz mnie suko."
  },
  "Kit jest kitem" : {
    "link" : "IXSrH1dbRys",
    "lyrics" : "Hit jest hitem, kit jest kitem więc po co go wciskasz myślisz że coś zyskasz? a tak w rzeczywistości to zawijasz sie i pryskasz  Mój bit, mój rym, mój stuff, mój dym mój czyn, mój czas, moja moc, moja noc mój koc, mój sen, mój dzień, mój cień, ma ulica, mój trans, mój sens a z nim wers!  Czym jest oldschool wiesz? patrz jak ja zakładam treść, wrogu sie strzeż, bo otwieram ogień ide z hnr ljn logiem, z Bogiem a spłaszczenie dłoni daję przestrogę, ją dostrzec mogę a prawda jest deszczem dla mego ogrodu więc daj mi lodu # z parasolem z przodu daj mi to, daj mi tamto, moze wszystkie pizdy tak jak ty, oprawie ramką, by zobaczyły kurwa jak bardzo je chcę czlowieku nie chce cie uczyc wiec odbij od grzechu moze odlecisz od pechu, od sekund na bezdechu moze zanurz sie w lechu, polskim lechu jest piątek 13,  kto wie co będzie z tego? czy wpadną tu psy? bym im odlał się na pysk moze zobaczymy blysk, nad miastem ostrodzkim, nie hollywodzkim bo jedziemy bez pucki ten rap ma tętno, tempo wystukuję ręką, jadę na miękko daję pento dziś lęką ty graj w to ze mną, ja nie gram w ciemno pod machą mego rapu jest poważna pojemność gotowa na więcej, sprzęgło na obrotach kręcę, dym jest wszędzie, zawsze będzie, masz wątpliwości? to przyjdź i sprawdź! sprawdź co jest hitem, a co kurwa kitem, dla twojego ucha TDW hit tym bitem dla mnie jest życiem, kolejna uncja następne kawałki, klipy bez lipy nie dlatego że, piszczą pod nie cipy  co to jest wiara? a ten kto się stara, to co kurwa chcę, nie jest tak dobrze, bo nie mogło być źle, ale to sie czlowiek wie, o tym sie pamieta, zapal wtedy skręta, całkiem inny smak Boże i nie pozwól by me mysli zżerał crack, wam dzięki widze znak dziękuje właśnie tak, słowami tej piosenki w etiopii ciepło  z lodu, oni mają mękki  z bólu tylko jęki, ja za rapu moje dźwięki teraz tobie wielkie dzięki, za wiarę, za w testach pełną parę czy grzechem jest że pale? Dla ciebie, dla mnie  nie, to dobrze czy też źle? dla mnie to jest kit, hit hit za hitem hit, jestem tu rap do utraty tchu OSTR TDW i WPADS, SMW wiesz jesteś ty nie masz, wiesz?  weź tak nie prowokuj  kręcisz dupskiem, bo po co masz stać z boku, mała jedziesz ostro jedzie LS siostro, numer jeden rap, hit za hitem brat, razem prawie od dwóch lat, ze szczerym to przekazem, patrz jak poszło to do przodu, bo to woda dla ogrodu, który sie rozrasta,  muzyka miasta w nim ulice i chodniki, to nie są tanie brednie, ani jakieś głupie wstrzyki, które tylko głupi łyka, patrz ostrodzka liryka słuchaj jak to brzmienie cyka, płyną słowa z bitem no bo kurwa hit jest hitem praca głową i zeszytem, nad samym sobą praca, wiesz owocna jest wspólpraca współpraca sie opłaca, lecz nie materialnie, na chuj mam cię ściemniać mówie ci centralnie, że pale jointów tony był duży top oh, zostal juz spalony, nic juz nie zostalo bo ile by nie było i tak jest zawsze mało co więcej by się chciało i więcej więcej, mówisz o ja kręce, pale go powoli, co kto kiedy woli, nie wnikam, biorę bucha, odrywam się od swiata no i z niego znikam na jeden krótki moment, na jedną mała chwilę tu mam dom i rodzinę, nad głową dach wiesz gdzie jest prawda? ukryta w ludzkich łzach. zazwyczaj kolorowo bywa, a to tylko w snach"
  },
  "Kong king" : {
    "link" : "_J1UYQJUyiQ",
    "lyrics" : "To nie ważne co mówią że jestem szaleńcem bo przecież nim jestem me życie to western western  Ta kolejna część recepty na dół kurwy chciały mnie w worku a tu taki chuj! Jedziemy dalej cmazet i jego bracia w cenie charakter ozdobi to wszystko a nie szata W moim ciele wciąż jest anioł i szatan patrz jak gadam wykrecam tą cbr'ke Bije serce czuje żyje dzieciaku trzęsą mi się ręce chce więcej prędzej wodze i częściej. Ref x2: To nie ważne co mówią że jestem szaleńcem bo przecież nim jestem me życie to western western  Kiedy zamkną gębę nie pytam wciskam enter Wypierdalam tulipanem w ryj na zachętę jebanym pedałom co im bije z ryja donos takie moje prawo wal gramy jeb w mono Dawaj moment promuje tdw ikony muzyka dla ucha a nie chapać do obucha wiesz co z serducha tego nie zabierze nawet pucha. Tylko posluchaj jebanym kondonom cieknie jucha robie beng bang to napad na bank odgadnij kod slang mój chrank chillout teraz chłodzi mi się drink ziomutek ładują fig by mnie zrozumieć wystarczy ci ten pierdolony link  Kong King robi pokaz jego dziwka jest king"
  },
  "Londyn" : {
    "link" : "eleVszaWpMw",
    "lyrics" : "To nie jest tak jak myślisz, bo jesteś pełen zawiści Ja dumny człowiek, a mój sen się ziści Nie wszystko to pieniądze, tutaj wiem, nie błądzę Raz na wozie, raz pod nim, czasem ogół jak sądzę Nie ma idealnych, wielu chce być dziś w modzie Nie wszyscy wiedzą co robić, by być własnym wodzem Na drodze niepowodzeń są problemy, man, co dzień Wybieram skromny żywot, nie z uszami w wodzie ATAK! Mówię Ci brat, omiń fatal! Latam, jaram, Europo mnie nakarm! Wszystko czego czasem chcę to dobrego bata Spokój to złoto bo na twarzy jedna macha.  Nie ma lipy, widzisz przecież, że pierdolę w dupę Widzę - jesteś trupem, a świrujesz, że jest super Ja nie zgrywam nikogo, nastawiony jestem wrogo Daję tu świadectwo a nie tylko dobre słowo! Wszystkie dziwki mogą pocałować mnie w chuja Mam skillsów tyle, że się niemy z nami buja Mały człowiek niesie prawdę, chuj, że wielki kłamie Jak się postaramy się i tak nikomu nie damy Nauczyłem się gdy sen zły nie brać nic do bani Dawno pierdoliłem łgarza, co wywiesza swoje pranie Na ekranie, patologio skurwysyńska, czy nie śpisz? Oczywiście póki żyję odpuścić ci jest za wcześnie.  Na skroniach pot spływa, w głębiach dźwięki te zaklinam Robię dobry shit, od wczoraj nie zaczynam Gdy Ty spałeś ja siedziałem i robiłem kawał syfu Od początku tu tak było, że pisaliśmy do bitu. Wszedł na salon gruby tytuł? Się nie spinam dla kwitu Fifarafy wielkiej sceny – uważajcie na bandytów. Wszedł na salon gruby tytuł? Się nie spinam dla kwitu Fifarafy wielkiej sceny – uważajcie na bandytów. "
  },
  "Ls dyrektywa" : {
    "link" : "5b-7ogkmob4",
    "lyrics" : "Nie zamykam drzwi przed tobą, bracie przejdź przez mój próg. Jest tutaj Bóg, nie sięgnie tu wróg. Pamiętaj czym jest ta piosenka. Pamiętaj za co role skręcam. Nie ma tutaj tego czego niechciał byś widzieć. Obiecuje, że nigdy nie będzie-możesz o tym wiedzieć. I rozwinę się w liryce; Obym tylko nie poszedł siedzieć. Sam wiesz jak polskie prawo za niewinność z nami jedzie. Teraz ja jade mu-jakbym liczył do stu. Wychodzi mi to. Wiem, że charakter to klucz. Już już. Wiosna jest tuż tuż. Niech obudzę się z nią. Wiem; naostrzę swój nóż. Dalej słowa mego rapu mocniej potną kurestwo. Połowe tych gwiazd rapu, które chrzczą się jako męstwo. HA HA HA, powiem śmiać mi sie chcę przez to. Śmiać się przez to-i jakże kurwa często. I zostaje z moim cieniem, z mym imieniem, mym pragnieniem. Wiem co jest w cenie. To nie to co drażni podniebienie. Nie to co tworzy na codzień wkurwienie. A to co w moich płucach na codzień miesza się z tlenem. Wychodzę przed mój dom. Zawsze czeka tam pod furtką, a dzisiaj nawet przyszedł tutaj (wulkan??) z córką. Bo pamięta ten co ma pamiętać-za to ziomuś na twym ramieniu jest moja ręka. NASZA SZTAMA BITA PEDALSTWO NIECH CZYTA. TDW CO NA MURACH JEST, NA WITACH PISANE ZOSTANIE. Nie miniemy się z planem, a ja znów kawałek skończę nad kolejnym ranem. Jesteśmy z tych gości co nie wala na afisz. W publike więc nie trafi, nie wiem może ktoś traci. A może nie, może ciekawszego z prochem w worze ma coś i chuj swój wykłada na resztę. A wykładam ja też. Tobie tylko głosem jestem. Jestem głosem. Jego treść jest mym losem.  Nauką nie ze szkoły, tak ja stałbym goły. Jak obudziłbym się teraz, wstał i łamałbym stoły.  Kolejny sen, kolejny dzień, kolejny wave, kolejny save.  Nie mów mi, że jest on poprostu. Że nie ma wtycznych, że nie ma mostów łączących koniec z końcem. Że serce nie jest wzorcem. Nie mów mi, że przewijasz o forsie, gdy napierdalasz rap-bo to nie są stany.  Gdzie bambusom na klipach jak ulał pasują many. Many, many i rap wygwiazdowany. A gdzie poważne treści o tym co podziemie mieści? Mistyk liryka, a w tym społeczny bandyta. Wyjebane ma na cytat tworzy własny unikat. Słyszysz mnie ciulu? Nie powtarzam po nikim. I co? Jadę cię znów, Pomyśl, znów bez przyczyn. Wielki kozak jesteś, ta? Pierdolisz to, milczysz. Albo połkniesz to, albo cię LS głód wilczy. Milczysz, warczysz. Opanuj się starczy. Czujesz, że niesiesz. Kurwa, jak ten łeb zwie się? Czy widzisz mnie człowiek? Ja nie jestem w gazecie. W ślizgach, jakichś pizdach. Chyba tak się nazywa. Ja nie jestem fanatykiem-nie gram tutaj detektywa,  ale jechać z kurestwem każe LS dyrektywa."
  },
  "Mam szajbe" : {
    "link" : "srhJTcDVEqo",
    "lyrics" : "Znowu jadę mordo solo Jestem poza ta kontrola Jakieś pety cos pierdolą Ale przecież chuja mogą  Mam szajbę, ta, niech cię nie znajdę Mam jazdę, przechodzę karmę No mercy smakuje dziś tej wersji Ale będę jeszcze bossem Persji  Mój sen musi się spełnić To ja mowie to, a nie pierdolony sennik  Mam skarb on jest bezcenny Zakrywam go światu temu ,który jest denny Nie odliczam dni jest już tak jak jest Ty, możesz wiedzieć ,że oszaleje do reszty  Dla świrów idzie rap i na takty są gesty Wchodzą, tak tu, teraz słuchaj tego taktu Cmaz'eta aktu, nie mów czego brak tu Nie mów czego brak tu Nie mów czego brak tu ja powiem brak słów   I właśnie tak, w przód lecimy pomału Byle do celu, świry, byle bez przypału Mój sen, moi bracia, są przy mnie Trzymamy sztamy, ale tak kurwa solidnie Jesteśmy sztywni, jebać świat tani Chcesz to bierz, nie chcesz nie bierz se do bani Ja się odcinam a numer jest nagrany Ja się odcinam a numer jest nagrany  Znowu jadę mordo solo Jestem poza ta kontrola Jakieś pety cos pierdolą Ale przecież chuja mogą   Chuja mogą, pocałować mnie w ogon Dobrze wiem co mam na wokalu Wchodzę jak adwokat, biorę z lokalu te kurwy wsiadają tak czują to w realu I właśnie tak w przód lecimy pomału Byle do celu świry, byle bez przypału  Mój sen, moi bracia, są przy mnie Trzymamy sztamy, ale tak kurwa solidnie Jesteśmy sztywni, jebać świat tani Chcesz to bierz, nie chcesz nie bierz se do bani Ja się odcinam a numer jest nagrany Ja się odcinam a numer jest nagrany "
  },
  "Mam tu" : {
    "link" : "9sB3-721iEc",
    "lyrics" : "Doskonale wiem wiem co ja mam tu, nawet kiedy oni źle życzą mi, z dziesiątego pietra lepiej widać zachód, moich widoków nikt nie zasłoni mi   Rozdały się już karty, w zaułkach te kanty, w eter płyną fanty, jara miasto blanty, szczyty, giganty ty lubisz se zajarać, tu jest tak ze luzuje ludzi trawa, służbisto choć to jest twoja sprawa, moja sprawa zakończyła się już dawno i nic nie posiadam to jest przecież kwestia jawną, a me odciski, jestem wam bliski z imienia i nazwiska zamieszkały przede wszystkim. Robię workout bo chce być wielki sukinkocie, nie trzaskam się w szicie, narkotykowym błocie. Biorę hantle jeszcze raz za adelante słuchasz LSO i od wtedy jest to wanted, pamiętasz?  Doskonale wiem wiem co ja mam tu, nawet kiedy oni źle życzą mi, z dziesiątego pietra lepiej widać zachód, moich widoków nikt nie zasłoni mi "
  },
  "Mieć czy być" : {
    "link" : "CuCysS9Id90",
    "lyrics" : "Ciebie dotyczy, umysł się ćwiczy Nie wracaj z niczym pokaz co wyczyn. Pokaż, co masz mi, nie jest nic straszne A z diabłem witam się jeszcze nim zasnę To jest mój basmen nigdy nie zgasnę A to perpetuum mobile własne Mam tu żelazo, kuje mu zbroję  Strachów na wróble się nigdy nie boje To jest ta złość, lamie ci kos I już masz dość, na cierpliwość To jest ten syf, nie da ci żyć  Zostać czy iść Mieć, czy być Mieć, czy być Prawda, czy mit Frajer, czy git Doliny, czy szczyty  Musi być tak gdzie wilk jest syty Rob wysokie synu te bity, i pokażemy pozerom hity A sekret tkwi głęboko w ulicy Od kurestwa abstynencja, honorowi są tu zawodnicy Nie sprzedać woleli, by być w kostnicy  Chociaż teraz jest mi ciężkoo, ciężkooo Zaraz będzie mi lekko, lekkoo  Gdy jechałem tu, moja kurwa siedziała obok mnie, było git, eeee! Siedziała obok mnie i patrzyła na mnie, patrzyła na mnieee, patrzyła na mniee Moja dziwka patrzyła na mnie  Chociaż teraz jest mi ciężko, ciężko Zaraz będzie mi lekko, lekko "
  },
  "Moje nie moje" : {
    "link" : "5E2uqu3neeU",
    "lyrics" : "Biore udział co dzień w pracy drodze do powodzeń, jest ze mną podwórze, anioł święty, który stróżem moim, moich bliskich w każdy boży dzień zostawiam na majku odciski, miał zostawiać ktoś jeszcze, lecz rozmyło go z deszczem, ale ja to pieprze tworze nowe i coś jeszcze, nie oglądam się leszcze, sami wiedzą co robią, ci co mają wiedzieć, wiedzą, że ja wiem, że się boją pojąć to, że linia mego ognia, dobija ich do dna, lepszy chcę być co dnia, zamkęli się w pokoju no i myślą w spokoju weź się połóż, rusz do boju, włóż łeb w piach, ściśnij pięści i zawojój, bierz jedno z dwóch, albo dwa cztery nie miejsca tu na leszcze, a to jest mój teren, choć dla wielu kurwa jestem, mniej niz zerem, to mam tu coś, czego nie ma nikt bo jest to moje własne i rozświetlam jak jaśniej, ale w moich miejscach, niedaleko TDW serca serca serca Dotrzymuję kroku LS Gizewiusza wiusza, dotrzymuję kroku, koniec 06 roku, wiele spraw jest w toku, za dnia i o zmroku konfidenci z bloku zawieszeni na lipach, na mitach niszczą, iż famrazon rozkwita, dokładnie jak w miastu, prawda na bitach patrz jak cyka, liryka dzika, patrz jak cyka, CMAZ z psychiatryka, patrz jak cyka, na chuj wnikasz, TDW czytasz i mordę zamykasz (TDW czytasz i mordę zamykasz) "
  },
  "Mój haj" : {
    "link" : "DXEKN4JdyJw",
    "lyrics" : "Mój haj, mój styl. A te śmiecie widzą za mną tylko dym.  Moje życie to moje czyny, ale nigdy w nich nie będę skurwysynem.  Mój haj, to nie jest twój haj. Uwalniam się od tego co tu, and im travel to the sky. Nie chodzi o hajs, tam nie chodzi o kwit. Jaki kto ma byt, jaki kto ma szczyt. Czuje puls, w dobrą stronę mój kurs. Mam w zanadrzu osy jak stare Chicago Bulls. Nie chce do ceny, ona nie sięga mej weny, a jeśli chodzi o rap ten to jest mój imiennik. Syberii pamiętnik, niezwyczajny bo tętni krwią karmazynową.  Raz w życiu byliśmy dziećmi.  Raz w życiu po razie będziemy mieli dzień ten. Zrozum wszystkie wrota już za tobą są zamknięte. Zapamiętaj-memento: nie bądź nigdy dętką; a te proste słowa powiedział by każdy mentor. Esa nie bujam się ziomutek w mercedesach, czy z cygarem w garniaku, ale mam fotel prezesa. Esa eja brat, ja też mam tu marzenia.  Też znam łzy, też jestem kurwa zły. Jeszcze mogę się naprawić, jeszcze mogę się zabawić, jeszcze mogę zrobić wszystko za co nie mógłbym zabić, (Za co nie mógłbym zabić, Za co nie mógłbym zabić, Za co nie mógłbym zabić.)  Mój haj, mój styl. A te śmiecie widzą za mną tylko dym.  Moje życie to moje czyny, ale nigdy w nich nie będę skurwysynem."
  },
  "Na niebiesko" : {
    "link" : "b4PwYEg0OG8",
    "lyrics" : "We Włosach Miała Wiatr I Kochała Ten Świat Szczęścia Nie Było Widać Końca Końca Końca Końca I Malowała Wszystko Na Niebiesko Jak I Nie Liczyła Się Z Resztą To Ona Ona Ta Niezależna I Grzeszna Ty Ty Chcesz Być Ze Mną Wiedz Że  Nie Nie Dam Rady Bo Tak Naprawdę Przecież Tutaj Nie Ma Mnie To Ona Ona Ona Ona Ta Niezależna I Grzeszna We Włosach Miała Wiatr I Kochała Ten Świat "
  },
  "Na ostrych zakretach" : {
    "link" : "pC6mm22NiLk",
    "lyrics" : "Nie łam mego serca kurwa na ostrych zakrętach. Mamy wszystko czego pragną ci co mają bagno. Zostali z tyłu dawno bo o życiu wiedzą gówno, zostaje prawda dla tych na których los już się uwziął, patrzę w niebo widzę gwiazdy, będzie czy nie będzie eden który we wszechświecie ponoć tylko jeden, biorę w rękę kredę, lecz to dzieciak na niej pisze, milczę spokój ćwiczę, na wielkie rzeczy nie liczę, wykop z głowy mądrość, której już ci nie zabiorą, nie poskromią skurwysyny tego o czym marzysz ziomal, wydrę coś nim skonam, jadę kurwa tu jak Conan, i niech myślą ze my wrogiem sobie, a tu zawsze zgoda. Czas jest nasz brat, tylko trzeba dobrze zagrać, spalone kryminały są, więc nie bądź wariat.  Chcesz zrób to za mnie, bo wyjeżdżam daleko stąd, zostawiam mały kąt, jadę zdobyć nowy ląd, wiem gdzie mam iść, wiem jak mam żyć, ty nie mów nigdy więcej mi, że nie ma sensu śnić. Nie trać flow ani chwili, niech się chwali, niech się dymi, niech się wola Boska czyni, niech się walą skurwysyny, po kolei incognity teraz wychodźcie z tych cieni. Nie potrzebuje twych łask, nie kupuje waszych masek, wbijam chuja w waszą kasę, zasłuchany jestem w bass`ie, żyje raz się, kwestią gaszę, zawsze stałem przy tej frazie."
  },
  "Nie pierdol" : {
    "link" : "KdYJBBqa5dU",
    "lyrics" : "Czy staniesz się skurwielem gdy okazja się nadarzy Czy masz wyjebane i już nie masz o czym marzyć Nie pierdol Bo czy w cos wierzysz czy sie diablu sprzeniewierzysz Slowa marzysz, uwazaj bo sie sparzysz I nie wkurwiaj, ej Kazdy moze zbladzic ale tylko jeden ziomus bedzie nas sadzil Ja tu wracam bo mam do czego, do moich skarbow, nie potrzebuje nic Nie musze miec miliardow Gdzie jestes brachu, wolam ciebie zachu Dlaczego stracimy znow bez ciebie tyle czasu Nie rozumiem hałasu, chaosu odnosu Lecz zaczynam od skosu, wieczorem zjem rosół, a potem na lolka zajedzie pare osob A potem ten dzien skonczy sie snem Spotkam sie znowu z oceanu snem Mialem widze znów Ciebie, wysoko na niebie A ja tam tuz obok dalej wspolna droga przejdziemy te nowa Chcialem tylko z toba byc Snilo mi sie o tym ze bylas hare kryszna A pora na marzenia to byla fantastyczna   Wysoko na niebie, ja widzę dziś Ciebie, Ciebie, Ciebiee Ja widzę dziś Ciebie Wysoko na niebie, ja widzę dziś Ciebie, Ciebie, Ciebiee Ja widzę dziś Ciebie Ja kocham Cie Ja tak kocham cie Ja kocham Ce  Wysoko na niebie, ja widzę dziś Ciebie, Ciebie, Ciebiee Ja widzę dziś Ciebie Wysoko na niebie, ja widzę dziś Ciebie, Ciebie, Ciebiee "
  },
  "OCB" : {
    "link" : "E0eBHdRGBVI",
    "lyrics" : "Zawsze na to czas jest aby sprawdzić prawdzie w oczy. Patrzę w oczy prawdzie teraz jest druga w nocy. I widzę ten błysk i on powala mnie na pysk. A wiesz o co chodzi kiedy o HNR chodzi? A czy wiesz o co kaman gdy wyciągam z kielni grama a czy wiesz ocb gdy miota z kurtki gana. A czy wiesz jak to jest mieć powód otwierać szampana, a czy wiesz jak to jest kiedy skuwa Cię pies.  A czy wiesz jak to jest gdy zakładasz nowy dres? A czy wiesz- chcesz zapytać mnie też. Pytaj nie pytaj jestem zdrowy, wiesz chwytam. A czarno na białe wszystko widzieć mam zwyczaj. Więc o co kaman!? Jeszcze raz zapytam, gdy widzę Cię chłopie jak ty chcesz być na topie. Gdy widzę Cię dziwko jak chcesz być zarobiona szybko. Gdy widzę Cię frajerze wciąż sprzedajesz czy w to wierzę… Czy ja nie mam rozumu, bo wyróżniam się z tłumu? Nie jebany cieciu, wystarczająco żeby widzieć, że ten temat już nie podniesie się z gleby. Społeczniaki, padaki, psychole i inne zjeby. Życie, ambicje, rozum i geny. Czas, czas tyka czas co stanie się i kiedy. Broń to człowiek a człowiek to broń, rozsądku mnie broń a Aniele mnie chroń.  Mój dom mych bram a za nimi haram, haram to miejsce, haram moje szczęście nie wchodź w drogę mi człowieku będzie lepiej częściej. Policja zagryza, prokurator zagryza, sąd zagryza to znaczy kto wygrywa? A kto przegrywa?- pytam nikt się nie wychyla. Tylko antynarkotykowe co ma miejsce w mych szczylach. Tak szmato szukaj nic nie mam, możesz szukać to z mych majtek czy ja tego Ci nie dam?"
  },
  "Opak" : {
    "link" : "4-kVFh7H0Ug",
    "lyrics" : "Przewijka ma znaczenie, przewijka jest w cenie, a co by o niej nie powiedział wróg co się śmieje, bo dobrze wiem jak rap ten cyka - TDW poezja pierdolony unikat, a co miałeś wątpliwość, usłyszałeś tych gości, ja nie wale na piedestał, wciąż jestem ten sam prosty chłopak co trzyma w grabie jointa i czteropak, jeśli chodzi o mój kraj zawsze wale na opak. Nokaut dla gwiazdorskiego rapu i wciąż chce być głębiej mistycznego klimatu, tabu tematów dla jebanych prostaków, powiedz co myślisz i dla braci to zapuść, a reszta chuj interere mnie co, reszta przekreśliła mnie już dawno, przez co miałbym przestać - o nie, nie, nie, zbyt poważny jest potencjał, są zbyt głodne me ambicje, więc włożyłem w inwestycje, wiary ku raju miłości ku szczęściu, tak wiele zyskałem WPADS z Jezusem w wejściu, i co i co - wciąż wale do przodu, chociaż mam czasem koszmary, widzę bliskich spod lodu, mam czasem koszmary, lecz ja budzę się z nich stary, a to, że mam kurwa tutaj w zawieszeniu kary nie może mnie odepchnąć od pracy, choć jest dzień szary, szary czary mary i zaraz będzie wiosna, wiem, że od niej tak jak co rok można wiele dostać, co rok kurwa co raz więcej dostać, nie da rady sprostać problemom gdzieś głębiej, są tacy co którzy by nie chcieli widzieć więcej mej gęby, zgryzasz te zęby, no to już wal że strzelby, wiem, że co ma być to będzie - Bóg ma plan, nie jest tępy. Dzisiaj klękam do krzyża, coś wielkiego się zbliża, wiem, zbieram swoje siły nie jeden chce ubliżać, oficjalnie tylko w tej grze bezkarnie, ja modlitwą się karmie, bo czeka światłość na mnie, czy na ciebie, tego człowiek nie wiem, ale mam nadzieje, wierzę, że nie mijasz się z pacieżem, jedziesz z tematem, więc i z kurestwem zatem, na szczęście w tym pierdolniku zawsze będzie patent, nie zawsze pójdzie kantem, wiem, że chciałbyś tego, czasem sam się zastanawiam, ale warte jest to czego - ryzyka, choroby, utraty honoru, hardkoru, zmiany torów, wiecznych sporów - ej chyba nie, więc nie mów mi nie, powiedz mi tak, ja wierzę w ciebie brat, nie będę milczał, trzymał swego za zębem, powiem nawet gdy mam dostać od frajerstwa w gębę, nie ważne, ważne to co jest ważne, a co kurwa jest jak nie walka po kres, a co jest jak nie to by przejść to bez łez, przejść to tu i tam bez łez, oczywiście się tak nie da kiedy człowiek umiera, ale nie miej wątpliwości, że twe serce zabiera i niech nie ma wątpliwości, że cię pamięć nie zaciera, ty wybierasz, to ty się przedzierasz, to ty zawsze patrzysz, tylko czy się spodziewasz.."
  },
  "PET" : {
    "link" : "e-7yN71IJko",
    "lyrics" : "ej porobiła cie na raz dwa trzy a na raz dwa trzy miałeś byc tam ty już wątpisz sam w siebie lecz na chuj we mnie wątpisz na chuj coś trąbisz potem inny bajer ciągniesz porobiła cie nie mnie zwykły pet co jest niczym tu a co mamy razem tu co mamy moze mam to sam, nie wiem już ty język swój krusz a ja w swojej klicie tu pokazuje pewnej życie i dobicie której kocha  ty kładź język tam gdzie jest twoja brocha porobiony partaczu porobila cie zwykły cwel frajerskimi oczkami które robią cie, porąbią cie bo jesteś zwykły cieć ona wie że możesz chcieć sama może mieć jak palanta miłości dwie co on tam ma tutaj ma fanta kurestwo na kantach  ej porobiła cie na raz dwa trzy a na raz dwa trzy miałeś byc tam ty już wątpisz sam w siebie lecz na chuj we mnie wątpisz na chuj coś trąbisz potem inny bajer ciągniesz porobiła cie nie mnie zwykły pet co jest niczym tu a co mamy razem tu co mamy moze mam to sam, nie wiem już"
  },
  "Patrzę" : {
    "link" : "vUJHOYnSKLA",
    "lyrics" : "Za proste by to było ziomek gdybym w jednym słowie w kółko pisać życie i to jaki bywa człowiek, więc nie zamykam powiek, robię rytmy jakiekolwiek, biorę ten mikrofon, lęcę, nie pytaj mnie dokąd, mam swoje loty, koty poszły za płoty, mam swoje jazdy, oświetlają niebo gwiazdy, mam swoje zasady, czy zaledwie są to wady, nie interere mnie człowiek co ty w ogóle o tym sądzisz, mącisz, błądzisz, a ty chcesz mnie wysterować, lepiej popatrz człowiek przed siebie i na skuchę się nie wyprowadź, pierdolone służby śledcze ciągle walą na manowiec, szukają chuj do dupy, bo ja palę sobie towiec, tylko towiec, a ty gliniarza z Maiami wkręcasz sobie pało z frajerskimi partnerami, w pierdolonym akcie konspiracja, a ja patrzę, i widzę cię kondonie, chcesz w łańcuchach moje dłonie, o nie, nie pozwolę sobie z siebie zrobić szmatę, za to szmato ty wciąż jesteś, na czym stoję zatem, stanę na tym co zmontuje, zmontowałem rap nie z trudem, a z blantem liryki składem wyobraźnia patent, pamiętaj to wszystko, daje sens tym listkom, jesteś blisko, a to jest najważniejsze, czekam teraz niecierpliwie na dni cieplejsze, panny odważniejsze i me kieszenie pełniejsze, dwa zero siedem marzec, nie brakuje tu wydarzeń, marzę, ważę słowa w każdym razie, gdy się dzieje coś poważnego, już nie ważne w imię czego, nie ważny w szczegół, lecz ja muszę tonąć w dymie, nie mam roli w swym zadymie, lecz mam rolę w dobrym filmie, w którym życie nasze i znów zwijam, palę, gaszę, dom patrzę, znów jadę i znów lachę na coś kładę, znów budzę się i kładę, znów nagrywam, daję radę…"
  },
  "Plan jest wielki" : {
    "link" : "5gJj9IfgBDI",
    "lyrics" : "Śledzę, patrzę, wykopuję i biorę towar, I wypierdalam jak najdalej, Gangsterzy w amoku wykurwiają się nawzajem Jestem kotem, nie czekałem z tym na potem Teraz na te piękne wyspy wypierdole samolotem Z pięcio gwiazd hotel, posadzą mnie w ten fotel Dziwki, poker, proszę z loden Johnny Walker Ja nie mogę z powrotem, przyjaciele powiem śmiele, gibony półmetrowe muszę gasić w tym popiele A tą biedę pierdolę z gulem i telewizorem Amore tu biore te piękne dupeczki wolę Przecież wiem, zaraz skończy się ten sen Ej men czy Ty wiesz jak zarobić mam ten kesz? Jak zarobić ten kesz, kesz, kesz Ty wiesz, wiesz, wiesz Biorę ten towar i wypierdalam ile sił mam w nogach Pierdolcie się, pocałujcie mnie… Gangsterki mój plan jest wielki Mój plan jest piękny, mój plan jest na to chętny."
  },
  "Pragnij mnie" : {
    "link" : "yBpr3oVBbaw",
    "lyrics" : "Ej ej  Znów mikrofon w ręce mej. Za każdym razem kiedy stukam w ruletkę, mocniej biję mi serce, więcej flow, mocniej kręcę. A teraz niech dziewczęta zakręcą pupensem a ja złapię macha z bratem między wersem. Więc łapię macha, macham ciężej żacham. Dymi czacha dymi, zmęczonym mnie czyni. I chuj mnie to interesuje co na to inni, chuj mnie to interesuje co frajerstwo knuje, jakie myśli o mnie snuje teraz mój rap ich truję. A kurestwo se wkręca, że rozgryzło odmieńca widząc go przez chwile, co za kurwa debile.  Którą robią milę z myślami jak thriller. On jest taki i taki, nie mam zawiesić się na nim, nie mam. Wiem, że jest trudniejszy mój sen niż jego trens, niż jego wers, niż jego poczynania i jego nagrania"
  },
  "Przedmieście 3-go" : {
    "link" : "3ReELv1txwI",
    "lyrics" : "Przedmieście 3 maja napierdala dobry rap więc go bierzcie nie znajdziecie tego flow, wreszcie to jest jeden scyr który rozpierdala wreszcie i rozpierdalał wcześniej ale juz dopiero tutaj jestem.. w twoim uchu ziomek w twoim duchu ta muzyka właśnie tam pędzi, pedałów ryj swędzi bo coś poważnego się tu kręci zaciskam swoje pięści lecz to nie wystarczy bo oni są jebnięci ej gdzie jest twój rozsądek powiedz jak taki hałas może stworzyć porządek ja nie jestem tu sądem a tym bardziej Jamesem Bondem ale ta zabawa mi wygląda na dynamit z odpalonym lontem który w końcu pierdolnie jak chcesz ja mam wyjebane w to sam wiesz, ty robisz co chcesz ale ode mnie odbij wiem ze wyjebać z klamką do ludzi jest najwygodniej"
  },
  "SEMTEX" : {
    "link" : "pMGKukd7zSk",
    "lyrics" : "GOG Bo moge byc ta ! bo mozesz bo mozesz mowic o mnie ze jestem skurwysynem jakich mało a co sie stalo nic sie nie stało przecież wystarczy  ze byle pała puści jakis farmazon w eter gdy zeżarł fete bez pomyślunku może by miec ku temu pretekst, układam semtex i czekam  na dobry moment tu za domem, w imie zasad trzy litery bajer nome nomen omen  wiem czym jest sonet, to przekaz mój kumplu co leci szybciej od komet  do wielkich planet niech się tu dzieje ten zament mnie nie dotyczy  co tu jest grane, a mózgi wyprane nie ma na nie szans już bo system spierdolił te styki od ich transów  te zycie hej brachu od fachu to część druga ej mordo badz szytywny  bo przed tobą droga długa  będą lepsze dni jesli były juz te gorsze, teraz pomyśl jak to miec i  wydymaj w dupe forse  ja nie musze hajsem świecić nie musze ty kurwo pierdolona w dupe  masz tupet wchodzisz mi z tym butem na salony ty kurwa skończony  fiucie to tak w skrócie a nie sonet sonet trzy litery bajer nomen nomen  sonet sonet nome nomen leci szybciej od komet  to odpowiedni moment trzy litery bajer nome nomen   Rób jak wolisz bo na pozór spoza nikt i nic nie zmusza tylko system ludzi rucha ze brakuje im w celcjuszach  pozór kurwa nie masz wrogów życie nie ma scenariusza  teraz rapem mantre puszczam  żeby lekka była dusza, zebym dalej mógł się ruszać też potrzebuje uniesień  że jak spotka mnie kostucha żebym podtarł se dekretem  pierdol bracie etykiete tyle kurestwa się szwęda  jak bym za kontener setek choćby diabeł mnie opentał niech cie kurwo niesie drweca jak pogrebałeś zasady  moim sprzymierzeńcem księzyc czlowiek w pole wyprowadzi taki układ monetarny mnie od tego boli czacha  wasza wina wasza wita, penitencjarny atak wiedz ze to rzecz jasna  sprawa oczywista co raz rap bardziej poważny  jak w arabii islam dla hidnusów kriszna  poziom niczym opium afganistan teoria warmiśka  dla nich także przyjdądni sądne  te żmije ciągle wpierdalają i zostają głodne  cierpie na sporą insomnie ty gadasz nie wiesz nic o mnie  czekaj a miną dni chłodne zatem zasiądziesz wygodnie  nie zdradzaj spektaklu wspomnień  by z własną etyką zgodnie"
  },
  "Serce" : {
    "link" : "w67NN6fEG1w",
    "lyrics" : " Bo to świat ten Otworzę ci serce  Na pamiątkę byłeś ze mną nie od wczoraj Odpowiednia jest już pora by zaśpiewać mordo sto lat Otworzę ci serce - bo to sonet jest w podzięce Do odcięcia kręcę bejce, a wariaci chcą więcej Bo to świat ten - dla nas jest taki piękny Tylko ludzie skurwysyny ciągle zaciskają zęby Nawet nie wiesz ile fiutów jest zawistnych dla ciebie A ty dobry chłopaczyna jeszcze dzieliłbyś się chlebem Twoje serce jest tak kruche, a że dzisiaj jesteś duchem Sztywny dzieciak był 100%, no i pogrzać musi puchę A te kurwy rozjebuty, samozwańce pierdolone Robią wszystko abyś skonał, aby schody bardziej strome Nienawidzę ale czuję że potrzebna ta nienawiść I potrzebna była miłość, abym nie musiał dziś zabić Abym nie musiał być w pacie, sam mam łeb na karku bracie I spokojnie, abyś słuchał dzisiaj to nagrywam w chacie I otworzę ci to serce, wszystkim TDW w podzięce Odpowiednia jest już pora, by zaśpiewać mordo sto lat  sto sto sto sto Sto lat  Otworzę ci serce "
  },
  "Skutki uboczne" : {
    "link" : "8f5adrtFFhs",
    "lyrics" : " Gdy przychodzi w końcu czas, abym coś napisał, przychodzi tez czas abym cieszył się z życia, chcę cieszyć się z niego chcę pojechac coś pięknego WPADS w imię tego. W imię Liryki Składu Ostródzkiego wiem, że nie ma co żałować, zawsze będzie coś większego, chociaż TDW ekipa, muzyka jest wielkiej wagi, nie będzie tutaj nigdy miejsca dla jej nadwagi dużo miejsca na LS tagi, na drodze naszej sagi, inaczej człowiek czuł się pare lat temu jak nagi, teraz nigdy dość uwagi teraz wokół Ciebie dragi, teraz myśli wokół Ciebie, nienawiść, bij, zabij, lecz po cichu za plecami, sięgają w kielnie palcami taka kurwo jesteś? Choć dosięgnij do mej lagi. Sprawna twa bajera, Ci wiele drzwi otwiera, tylko pot z czoła ścierasz, myślisz jestem w formie teraz, dobrze się ma sprawność nieba bo zasad trzymam się, reguł starych jak drzewa, skręcam w prawo, myśl o co w tym wiem, że prawa to nie lewa strona od 'R' (?) CMAZ głowa wyczajona, kwestia nieskończona też, która nie jest chora treść, która maluje historię o nas, przyjaźń trzeźwa aż to ta dobra strona, czy nie zawiść i nienawiść, to ta zła sam zobacz, jakie to proste tworzysz więc za nami postęp. Jakie to proste stworzyć więc za nami odstęp, a grunt by móc przejść i wrócić tym samym mostem, grunt bym kochał to co mam i mnie kochał los ten, tak jak drzewo kocha wiosnę i gdy jestem ponad wietrze, a ja w siłę rosnę zestarzeję się odpocznę, teraz życie moje młode, tętnące, dzienne, nocne. Słabości nieraz górą, lecz efekty owocne. Wchodzą nie wychodzą ze mnie skutki uboczne. Lubie patrzeć w ogień, dlaczego nie wiem i wiesz Ci nie odpowiem, zresztą to nieistotne ważne, że wiem co tu robię jestem tu po to aby spełniać swoje sny i nie jestem zły, kiedy widzę tych co mieli więcej szczęścia. Nie mam pojęcia jak potoczy się mój los, może to i lepiej, źle jest wiedzieć za wiele i zamartwiac się na zapas, życie jest jak układanka, dopiero gdy ją skończysz widać, że zachodu była warta, więc układaj rozważnie, nie wszystko jest takie, jakie może się wydawać, pozory kontra prawda, odwieczna walka, która nigdy się nie skończy ludzkość ją toczy, o tym chodzi po tej ziemi. Własne patenty to podstawa, by na starcie mieć szanse zdobyć metę. Wiele zależy od Ciebie, więc się staraj postępować mądrze, wiem to nie jest takie proste, sam popełniam błędy, nie jest świętym tylko zwykłym człowiekiem z krwi i kości, mam zalety i słabości to normalne, na tym świecie nie istnieją rzeczy idealne wszystko ma dwie strony, najpiękniejszy owoc może być najbardziej gorzki ze wszystkich, miej szacunek do bliskich myśląc tylko o sobie daleko nie zajdziesz, prędko upadniesz, zaprzepaścisz swoją szanse, a więc zapamiętaj, że nie wszytko co się świeci zachodu jest warte!  "
  },
  "Tango" : {
    "link" : "83RYA4gYqYU",
    "lyrics" : " I chociaż chciałbyś tego tak mocno Tego tak mocno To nie możesz sam tego dotknąć Nie możesz tego dotknąć Idę dziś tam Chociaż jestem sam to Cieszę się z tego co mam bo Mogę tańczyć z kurwami tango  Tańczę tango Tańczę tango CMAZ tańczy tango Z patologią walczę dobrze dobrze znam ją  Idę dziś tam Chociaż jestem sam to Cieszę się z tego co mam bo mogę tańczyć z kurwami tango  Tańczę tango Tańczę tango CMAZ tańczy tango Z patologią walczę dobrze dobrze znam ją  Tańczę tango Tańczę tango CMAZ tańczy tango Z patologią walczę dobrze dobrze znam ją "
  },
  "Vs2" : {
    "link" : "Z_WIIhBeu6A",
    "lyrics" : "Z tym kocham Cię mocniej,ta ja kocham Ciebie mocniej..  Moje słońce świeci pięknie nie pierwszy raz kiedy mamy.. kiedy staje czas, właśnie tak, muzyki koncert gra kobieta tequila i trasy gorące, trasy gorące szampaje, palmy, sobrero, kokosy i oceany miłaaaa maa, miła ma, z tym kocham cię mocniej ta, ja kocham Ciebie mocniej  tak świat chce się kręcić, wokół nas  co będzie dalej tego nie wiem tylko to że będę z Tobą w niebie  wokół nas, tak świat chce się kręcić ta ja kocham Ciebie mocniej "
  },
  "Wiem" : {
    "link" : "CENfgNUQtUM",
    "lyrics" : "Nie mogę przestać zmienić tego co zjebałem wcześniej tu na drodze bez odwrótu sam na sam z bogiem jestem dłonie są pocharatane ale wiara zostaje niepowodzenie w pysk ale wiara zostaje nie chcę kurwa pierdolonej trumny, zyje jestem dumny i szanuje swoje życie dumny jestem że szanuje twoje farmazonów nie kupuje, nie próżnuje robie rap a nawet kawał.. dobrego podziemia które się kurwa nie ściemnia nie robie zamieszania a tu kartka następna a na hajsu sępach tutaj kwestia jest zamknięta bo rap tylko kotów na muzke pamięta przemyślenia w skrętach manewry na zakrętach boli kurwa szczęka od mówienia do śćiany od mówienia do ściany.. siemandero przyjacielu to nowy dzień jak sen temperatura daje dziś 35 a więc zróbmy coś co zostanie w pamięci złapmy to szczęście i niech bedzie do śmierci chce miec to o czym tu codzień śnie, więc nie mów nic daj mi zostac w tym słońcu juz nie chce myslec nie chce juz myślec, no to przyjdzie czas na końcu, a na końcu będe z toba sam a nie gdy już bede miał byc tam będe miał byc tam będe miał byc tam gdy będe miał byc tam"
  },
  "Wystarczy twój uśmiech" : {
    "link" : "3qRInQtfrkU",
    "lyrics" : "Wystarczy twój uśmiech, dasz mi nim wszystko, Nie chce by to, co, poczułem prysło Wystarczy twój uśmiech, dasz mi nim wszystko, Nie chce by to, co, poczułem prysło  Wierze w tą przyszłość, nie raz nie wyszło Serce waleczne, problemy wieczne Przyszlosc, nie raz nie wyszło...  Wystarczy twój uśmiech, dasz mi nim wszystko, Nie chce by to, co, poczułem prysło Wystarczy twój uśmiech   Wystarczy twój mały uśmiech, Ty dasz mi nim wszystko co chce Wszystko! Nie chce by to prysło  Wystarczy twój mały uśmiech, Ty dasz mi nim wszystko co chce Wszystko! Nie chce by to prysło "
  },
  "Zamku" : {
    "link" : "tcSc5DFH0GQ",
    "lyrics" : "W pięknym zamku czekasz na mnie tak bez przerwy, lecz czy ja przyjdę, pytam siebie sam, do Ciebie tam, tańczyć, taa, chce kurwa tańczyć, chce tańczyć, chce kurwa tańczyć, chce kurwa tańczyć. W pięknym zamku czekasz na mnie tak bez przerwy, lecz czy ja przyjdę, pytam siebie sam, do Ciebie tam, tańczyć, taa, chce kurwa tańczyć, chce tańczyć, chce kurwa tańczyć, chce kurwa tańczyć, chce kurwa tańczyć, nie mam dość moich tańców, ty masz coś do mnie - podbij tutaj popaprańcu, nie jak słyszałem już opinie takich kurwa dzieci, nie znasz skurywsynu mnie, a coś o mnie bredzisz, tak nienawidzisz mnie, ale jednak wciąż mnie śledzisz, jeszcze pokochasz mnie, może jeszcze nie dziś. Wiesz kto, i wiesz kto, ta, ziomuś LSO, ta, LSOOOO, LSO... W tym pięknym zamku czekasz na mnie bez przerwy, musisz zrozumieć to, że za dużo mam werwy, mam ten bit, mam te rezerwy, coś rozpierdala moje poniszczone nerwy, cały czas życie daje w kość, cały czas nie mam tego dość, jest coś o czym czasem myśle, o gwieździe najpiękniejszej, która mi tutaj błyśnie.. "
  },
  "Zazwyczaj" : {
    "link" : "2KngHlelTGE",
    "lyrics" : "Wiem, że to co dobre we mnie jest, wiem, że to co być, chce, chce to mieć, chcę osiągnąć cele, a to jedno z moich marzeń, chcę być w porządku, tak chce, nie inaczej, jeszcze więcej tego chcę co jest dla mnie ważne, jeszcze więcej tego co jest we mnie dziś jawne.  Jeszcze więcej tego co jest we mnie jawne… Zazwyczaj robię tak jak robić mam zwyczaj, zazwyczaj cieszę się życiem, więc oddycham, zazwyczaj rapuje, nie ma powodu bym milczał, zazwyczaj jest powód żebym krzyczał. Przez błąd mój, twój tym razem kurwa on, cierpliwości jebanej, powiedz cierpliwość jara lont, a nie raz było tak, że nie wiadomo skąd pojawiły się psy, pojawił z nimi się znowu zgniły zgrzyt, ja poczułem się ???, okoliczność była przed tym, a frajer pies w dupę prosto od incognito, czy będzie syty, będzie jebany w gębę, ta kurwa nie wie jeszcze, że mam Asa za zębem. Czysty nie byłem, czysty jestem, czysty będę, i tak pięknie czas spędzę na tym co mi wychodzi, pocisk dla prewencji w rapie moim, pocisk dla prewencji w rapie moim. Szanuje te chwile w których czuje przywilej, nie do końca nie ma spraw w których wciskam DELETE, co gdzieś tam pewnie jak ta stara piosenka, a nauczyć się życia ja je muszę pamiętać, czy wiesz ocb, czy wiesz co jest złe, mówię ci jak jest, nigdy nie wciskam kitu, do bitu rap LSO to poważny garnitur, ty masz wątpliwości na bezdechu, zanurz się w Lechu - polskim mleku, daj sobie szansę w pozytywnym transie, nie zawsze poznasz prawdę na dystansie, a przyznasz mi rację, taa, tutaj mam cię, nie mówię goń się, nie mówię ci wal się, nie mówię ci zmień się, nie mówię mylę się w wersie, mówię, czuję się w sensie, mówię i daję wiarę, przecież nie jestem tu za kare, jestem, bo życie jest darem, mówię wytrenuję barem, mówię i się nie gubię, robię to co lubię, a co dalej jeden Bóg wie, i tak dalej kurwa i tak dalej, i tak dalej kurwa i tak dalej, a popatrz teraz na to co jest ci jak na lato, widzisz jak jest pięknie, zapominasz o systemie, o tremie, o ekstremie, więc i o pierdolonej biedzie, słuchaj jak jedzie trego maj, nie jak się wiezie, a jak się wiedzie w ostródzkim jazz`ie, centra, osiedla i peryferia miasta, teraz dla was czas nastał, dajcie swój reprezentant, ale nie w maskach, wnet zaciśnie (?)(teren-basta)…"
  }
}
